02 Supervised ML
…
Loading required package: rpart

Attaching package: 'rpart'

The following object is masked from 'package:dials':

    prune

Modeling

bike_data_tbl <- readRDS("C:/Users/srajs/OneDrive/Desktop/Business/Business Decisions with Machine Learning/bike_orderlines.rds")
bike_data_tbl

# A tibble: 15,644 × 18
   order_id order_line order_date          model           model_year category_1
      <dbl>      <dbl> <dttm>              <chr>                <dbl> <chr>     
 1        1          1 2015-01-07 00:00:00 Spectral CF 7 …       2021 Mountain  
 2        1          2 2015-01-07 00:00:00 Ultimate CF SL…       2020 Road      
 3        2          1 2015-01-10 00:00:00 Neuron CF 8           2021 Mountain  
 4        2          2 2015-01-10 00:00:00 Speedmax CF 7.0       2019 Road      
 5        3          1 2015-01-10 00:00:00 Stitched 360 P…       2020 Mountain  
 6        3          2 2015-01-10 00:00:00 Roadlite CF 7.0       2020 Hybrid / …
 7        3          3 2015-01-10 00:00:00 Speedmax WMN C…       2020 Road      
 8        3          4 2015-01-10 00:00:00 Inflite 5             2021 Road      
 9        3          5 2015-01-10 00:00:00 Torque CF 8.0         2020 Mountain  
10        4          1 2015-01-11 00:00:00 Ultimate CF SL…       2020 Road      
# ℹ 15,634 more rows
# ℹ 12 more variables: category_2 <chr>, category_3 <chr>, price <dbl>,
#   quantity <dbl>, total_price <dbl>, frame_material <chr>, weight <dbl>,
#   url <chr>, bikeshop <chr>, location <chr>, lat <dbl>, lng <dbl>
…
...
and 34 more lines.

bike_fit %>% 
  pull_workflow_fit() %>% 
  tidy()

Warning: `pull_workflow_fit()` was deprecated in workflows 0.2.3.
ℹ Please use `extract_fit_parsnip()` instead.

# A tibble: 76 × 5
   term             estimate std.error   statistic p.value
   <chr>               <dbl>     <dbl>       <dbl>   <dbl>
 1 (Intercept)       4.39e 7  6.58e+ 1     668177.       0
 2 id               -1.35e 5  2.16e- 1    -623821.       0
 3 weight           -6.70e 5  1.70e+ 0    -394810.       0
 4 price            -9.55e 2  1.18e- 3    -810886.       0
 5 shimano_dura_ace  2.36e18  1.40e+15       1686.       0
 6 shimano_ultegra   2.36e18  1.40e+15       1686.       0
 7 shimano_105       2.36e18  1.40e+15       1686.       0
 8 shimano_tiagra    2.36e18  1.40e+15       1686.       0
 9 shimano_deore    -4.50e15  3.48e+ 7 -129341226.       0
10 shimano_slx      -2.05e 8  2.33e+ 4      -8818.       0
# ℹ 66 more rows
…
bike_predict

# A tibble: 47 × 4
   .pred_aluminium .pred_carbon frame_material category_2    
             <dbl>        <dbl> <fct>          <chr>         
 1        2.22e-16     1   e+ 0 carbon         Race          
 2        2.22e-16     1   e+ 0 carbon         Race          
 3        2.22e-16     1   e+ 0 carbon         Race          
 4        2.22e-16     1   e+ 0 aluminium      Endurance     
 5        1   e+ 0     2.22e-16 carbon         Endurance     
 6        1   e+ 0     2.22e-16 carbon         Endurance     
 7        2.22e-16     1   e+ 0 carbon         Cyclocross    
 8        2.22e-16     1   e+ 0 carbon         Triathlon Bike
 9        1   e+ 0     2.22e-16 carbon         Race          
10        1   e+ 0     2.22e-16 carbon         Race          
# ℹ 37 more rows
…
